Analyzing aspects of the North American Society · Roman
…
At first we turn degree from a character variable into a factor variable. We made sure that the order is the correct one and that levels are not sorted alphabetically which is what R by default does.

factor_degree<- gss %>% 
  na.omit(degree) %>% 
  mutate(degree = factor(degree, 
                         levels = c("Lt high school", 
                                    "High School", 
                                    "Junior college", 
                                    "Bachelor", 
                                    "Graduate"))) %>% 
  arrange((degree))

factor_degree

## # A tibble: 2,867 x 7
##    emailmin emailhr snapchat instagrm twitter sex    degree        
##    <chr>    <chr>   <chr>    <chr>    <chr>   <chr>  <fct>         
##  1 30       0       No       No       No      Male   Lt high school
##  2 0        1       NA       NA       NA      Female Lt high school
##  3 NA       NA      No       Yes      No      Female Lt high school
##  4 0        1       Yes      Yes      No      Female Lt high school
##  5 NA       NA      NA       NA       NA      Female Lt high school
##  6 45       0       NA       NA       NA      Female Lt high school
##  7 NA       NA      No       Yes      No      Male   Lt high school
##  8 20       0       NA       NA       NA      Female Lt high school
##  9 NA       NA      NA       NA       NA      Female Lt high school
## 10 NA       NA      NA       NA       NA      Female Lt high school
## # … with 2,857 more rows
…
## Warning: Problem with `mutate()` input `emailhr`.
## ℹ NAs introduced by coercion
## ℹ Input `emailhr` is `as.numeric(emailhr)`.

## Warning in mask$eval_all_mutate(dots[[i]]): NAs introduced by coercion

## Warning: Problem with `mutate()` input `emailmin`.
## ℹ NAs introduced by coercion
## ℹ Input `emailmin` is `as.numeric(emailmin)`.

## Warning in mask$eval_all_mutate(dots[[i]]): NAs introduced by coercion

email

## # A tibble: 2,867 x 8
##    emailmin emailhr snapchat instagrm twitter sex    degree         email
##       <dbl>   <dbl> <chr>    <chr>    <chr>   <chr>  <chr>          <dbl>
##  1        0     100 NA       NA       NA      Female High school     6000
##  2        0      90 NA       NA       NA      Male   High school     5400
##  3        0      75 NA       NA       NA      Female High school     4500
##  4        0      72 NA       NA       NA      Male   High school     4320
##  5        0      70 NA       NA       NA      Female Junior college  4200
##  6        0      70 NA       NA       NA      Female Junior college  4200
##  7        0      60 No       Yes      No      Female Bachelor        3600
##  8        0      60 No       Yes      No      Male   High school     3600
##  9        0      60 No       Yes      Yes     Female Bachelor        3600
## 10        0      60 NA       NA       NA      Female Graduate        3600
## # … with 2,857 more rows
…
